<?xml version="1.0" encoding="UTF-8" standalone="no"?>
<svg
   xmlns:dc="http://purl.org/dc/elements/1.1/"
   xmlns:cc="http://creativecommons.org/ns#"
   xmlns:rdf="http://www.w3.org/1999/02/22-rdf-syntax-ns#"
   xmlns:svg="http://www.w3.org/2000/svg"
   xmlns="http://www.w3.org/2000/svg"
   xmlns:sodipodi="http://sodipodi.sourceforge.net/DTD/sodipodi-0.dtd"
   xmlns:inkscape="http://www.inkscape.org/namespaces/inkscape"
   id="icons"
   viewBox="0 0 64 56"
   version="1.1"
   sodipodi:docname="youget-1.svg"
   inkscape:version="0.92.1 r15371">
  <metadata
     id="metadata35">
    <rdf:RDF>
      <cc:Work
         rdf:about="">
        <dc:format>image/svg+xml</dc:format>
        <dc:type
           rdf:resource="http://purl.org/dc/dcmitype/StillImage" />
      </cc:Work>
    </rdf:RDF>
  </metadata>
  <defs
     id="defs33" />
  <sodipodi:namedview
     pagecolor="#ffffff"
     bordercolor="#666666"
     borderopacity="1"
     objecttolerance="10"
     gridtolerance="10"
     guidetolerance="10"
     inkscape:pageopacity="0"
     inkscape:pageshadow="2"
     inkscape:window-width="1920"
     inkscape:window-height="1017"
     id="namedview31"
     showgrid="false"
     inkscape:zoom="4.2142857"
     inkscape:cx="2.4576271"
     inkscape:cy="28"
     inkscape:window-x="-8"
     inkscape:window-y="-8"
     inkscape:window-maximized="1"
     inkscape:current-layer="icons" />
  <title
     id="title2">youget-1</title>
  <path
     d="M29,46H27a4,4,0,0,1,4-4H42a2,2,0,0,0,0-4H32.8l-11-4H13V32h9.2l11,4H42a4,4,0,0,1,0,8H31A2,2,0,0,0,29,46Z"
     fill="#222829"
     id="path4"
     style="fill:#ffffff" />
  <path
     d="M37.2,56H34.8l-17-6H13V48h5.2l17,6h1.6L61.4,41.2A2.3,2.3,0,0,0,62,40a2,2,0,0,0-1.9-2L44.3,43,43.7,41,60,36a4,4,0,0,1,4,4,4.4,4.4,0,0,1-1.3,2.7l-0.2.2Z"
     fill="#222829"
     id="path6"
     style="fill:#ffffff" />
  <rect
     x="8"
     y="46"
     width="2"
     height="2"
     fill="#222829"
     id="rect8"
     style="fill:#ffffff" />
  <rect
     x="4"
     y="46"
     width="2"
     height="2"
     fill="#222829"
     id="rect10"
     style="fill:#ffffff" />
  <path
     d="M12,52H0V50H12V32H0V30H12a2,2,0,0,1,2,2V50A2,2,0,0,1,12,52Z"
     fill="#222829"
     id="path12"
     style="fill:#ffffff" />
  <path
     d="M49,28H25a1,1,0,0,1-1-1V23a1,1,0,0,1,1-1h5v2H26v2H48V24H44V22h5a1,1,0,0,1,1,1v4A1,1,0,0,1,49,28Z"
     fill="#222829"
     id="path14"
     style="fill:#ffffff" />
  <path
     d="M50,23.3L48,22.7,52.7,5.6l-6.9,9a1,1,0,0,1-.8.4,1,1,0,0,1-.8-0.5L37,2.9,29.9,14.5a1,1,0,0,1-1.6.1l-6.9-9L26,22.7l-1.9.5-6-22A1,1,0,0,1,19.8.4l9.1,11.9L36.1,0.5a1,1,0,0,1,1.7,0l7.2,11.8L54.2,0.4a1,1,0,0,1,1.8.9Z"
     fill="#222829"
     id="path16"
     style="fill:#ffffff" />
  <rect
     x="23.5"
     y="-2.3"
     width="2"
     height="12.53"
     transform="translate(9.3 23.6) rotate(-61.4)"
     fill="#222829"
     id="rect18"
     style="fill:#ffffff" />
  <rect
     x="43.2"
     y="3"
     width="12.5"
     height="2"
     transform="translate(4.1 24.2) rotate(-28.6)"
     fill="#222829"
     id="rect20"
     style="fill:#ffffff" />
  <path
     d="M37,20a4,4,0,1,1,4-4A4,4,0,0,1,37,20Zm0-6a2,2,0,1,0,2,2A2,2,0,0,0,37,14Z"
     fill="#222829"
     id="path22"
     style="fill:#ffffff" />
  <rect
     x="36"
     y="22"
     width="2"
     height="2"
     fill="#222829"
     id="rect24"
     style="fill:#ffffff" />
  <rect
     x="32"
     y="22"
     width="2"
     height="2"
     fill="#222829"
     id="rect26"
     style="fill:#ffffff" />
  <rect
     x="40"
     y="22"
     width="2"
     height="2"
     fill="#222829"
     id="rect28"
     style="fill:#ffffff" />
</svg>
